%YAML 1.1
%TAG !u! tag:unity3d.com,2011:
--- !u!1 &6622328554559082394
GameObject:
  m_ObjectHideFlags: 0
  m_CorrespondingSourceObject: {fileID: 0}
  m_PrefabInstance: {fileID: 0}
  m_PrefabAsset: {fileID: 0}
  serializedVersion: 6
  m_Component:
  - component: {fileID: 5813280803678573856}
  - component: {fileID: 7422837642403043973}
  - component: {fileID: 4676918720164277839}
  m_Layer: 0
  m_Name: Table2
  m_TagString: Untagged
  m_Icon: {fileID: 0}
  m_NavMeshLayer: 0
  m_StaticEditorFlags: 0
  m_IsActive: 1
--- !u!4 &5813280803678573856
Transform:
  m_ObjectHideFlags: 0
  m_CorrespondingSourceObject: {fileID: 0}
  m_PrefabInstance: {fileID: 0}
  m_PrefabAsset: {fileID: 0}
  m_GameObject: {fileID: 6622328554559082394}
  m_LocalRotation: {x: -0.7071068, y: 0, z: -0, w: 0.7071067}
  m_LocalPosition: {x: 0, y: 0, z: 0}
  m_LocalScale: {x: 53.185432, y: 52.631996, z: 47.49419}
  m_ConstrainProportionsScale: 0
  m_Children:
  - {fileID: 6215797555321747539}
  m_Father: {fileID: 0}
  m_RootOrder: 0
  m_LocalEulerAnglesHint: {x: 0, y: 0, z: 0}
--- !u!33 &7422837642403043973
MeshFilter:
  m_ObjectHideFlags: 0
  m_CorrespondingSourceObject: {fileID: 0}
  m_PrefabInstance: {fileID: 0}
  m_PrefabAsset: {fileID: 0}
  m_GameObject: {fileID: 6622328554559082394}
  m_Mesh: {fileID: -6692290496178104961, guid: f1e983c4d83dd3244ab4cbdca14e11bf, type: 3}
--- !u!23 &4676918720164277839
MeshRenderer:
  m_ObjectHideFlags: 0
  m_CorrespondingSourceObject: {fileID: 0}
  m_PrefabInstance: {fileID: 0}
  m_PrefabAsset: {fileID: 0}
  m_GameObject: {fileID: 6622328554559082394}
  m_Enabled: 1
  m_CastShadows: 1
  m_ReceiveShadows: 1
  m_DynamicOccludee: 1
  m_StaticShadowCaster: 0
  m_MotionVectors: 1
  m_LightProbeUsage: 1
  m_ReflectionProbeUsage: 1
  m_RayTracingMode: 2
  m_RayTraceProcedural: 0
  m_RenderingLayerMask: 1
  m_RendererPriority: 0
  m_Materials:
  - {fileID: 2100000, guid: 61b77f80be44f2b4fa885f9c0ea5ecc7, type: 2}
  m_StaticBatchInfo:
    firstSubMesh: 0
    subMeshCount: 0
  m_StaticBatchRoot: {fileID: 0}
  m_ProbeAnchor: {fileID: 0}
  m_LightProbeVolumeOverride: {fileID: 0}
  m_ScaleInLightmap: 1
  m_ReceiveGI: 1
  m_PreserveUVs: 0
  m_IgnoreNormalsForChartDetection: 0
  m_ImportantGI: 0
  m_StitchLightmapSeams: 1
  m_SelectedEditorRenderState: 3
  m_MinimumChartSize: 4
  m_AutoUVMaxDistance: 0.5
  m_AutoUVMaxAngle: 89
  m_LightmapParameters: {fileID: 0}
  m_SortingLayerID: 0
  m_SortingLayer: 0
  m_SortingOrder: 0
  m_AdditionalVertexStreams: {fileID: 0}
--- !u!1001 &4019222888441811332
PrefabInstance:
  m_ObjectHideFlags: 0
  serializedVersion: 2
  m_Modification:
    m_TransformParent: {fileID: 5813280803678573856}
    m_Modifications:
    - target: {fileID: 7027259316256123351, guid: 8364377486017d344b28d9dc6bfb5a3a,
        type: 3}
      propertyPath: m_RootOrder
      value: 0
      objectReference: {fileID: 0}
    - target: {fileID: 7027259316256123351, guid: 8364377486017d344b28d9dc6bfb5a3a,
        type: 3}
      propertyPath: m_LocalScale.x
      value: 0.005227
      objectReference: {fileID: 0}
    - target: {fileID: 7027259316256123351, guid: 8364377486017d344b28d9dc6bfb5a3a,
        type: 3}
      propertyPath: m_LocalScale.y
      value: 0.005227
      objectReference: {fileID: 0}
    - target: {fileID: 7027259316256123351, guid: 8364377486017d344b28d9dc6bfb5a3a,
        type: 3}
      propertyPath: m_LocalScale.z
      value: 0.005227
      objectReference: {fileID: 0}
    - target: {fileID: 7027259316256123351, guid: 8364377486017d344b28d9dc6bfb5a3a,
        type: 3}
      propertyPath: m_LocalPosition.x
      value: -0.00059
      objectReference: {fileID: 0}
    - target: {fileID: 7027259316256123351, guid: 8364377486017d344b28d9dc6bfb5a3a,
        type: 3}
      propertyPath: m_LocalPosition.y
      value: -0.00759
      objectReference: {fileID: 0}
    - target: {fileID: 7027259316256123351, guid: 8364377486017d344b28d9dc6bfb5a3a,
        type: 3}
      propertyPath: m_LocalPosition.z
      value: 0.0124
      objectReference: {fileID: 0}
    - target: {fileID: 7027259316256123351, guid: 8364377486017d344b28d9dc6bfb5a3a,
        type: 3}
      propertyPath: m_LocalRotation.w
      value: 0.7071079
      objectReference: {fileID: 0}
    - target: {fileID: 7027259316256123351, guid: 8364377486017d344b28d9dc6bfb5a3a,
        type: 3}
      propertyPath: m_LocalRotation.x
      value: 0.70710564
      objectReference: {fileID: 0}
    - target: {fileID: 7027259316256123351, guid: 8364377486017d344b28d9dc6bfb5a3a,
        type: 3}
      propertyPath: m_LocalRotation.y
      value: -0
      objectReference: {fileID: 0}
    - target: {fileID: 7027259316256123351, guid: 8364377486017d344b28d9dc6bfb5a3a,
        type: 3}
      propertyPath: m_LocalRotation.z
      value: -0
      objectReference: {fileID: 0}
    - target: {fileID: 7027259316256123351, guid: 8364377486017d344b28d9dc6bfb5a3a,
        type: 3}
      propertyPath: m_LocalEulerAnglesHint.x
      value: 89.98
      objectReference: {fileID: 0}
    - target: {fileID: 7027259316256123351, guid: 8364377486017d344b28d9dc6bfb5a3a,
        type: 3}
      propertyPath: m_LocalEulerAnglesHint.y
      value: 0
      objectReference: {fileID: 0}
    - target: {fileID: 7027259316256123351, guid: 8364377486017d344b28d9dc6bfb5a3a,
        type: 3}
      propertyPath: m_LocalEulerAnglesHint.z
      value: 0
      objectReference: {fileID: 0}
    - target: {fileID: 7027259316256617975, guid: 8364377486017d344b28d9dc6bfb5a3a,
        type: 3}
      propertyPath: m_Name
      value: GoldenChest Variant
      objectReference: {fileID: 0}
    m_RemovedComponents: []
  m_SourcePrefab: {fileID: 100100000, guid: 8364377486017d344b28d9dc6bfb5a3a, type: 3}
--- !u!4 &6215797555321747539 stripped
Transform:
  m_CorrespondingSourceObject: {fileID: 7027259316256123351, guid: 8364377486017d344b28d9dc6bfb5a3a,
    type: 3}
  m_PrefabInstance: {fileID: 4019222888441811332}
  m_PrefabAsset: {fileID: 0}
